<?xml version="1.0" encoding="UTF-8" standalone="no"?>
<!-- Created with Inkscape (http://www.inkscape.org/) -->

<svg
   xmlns:dc="http://purl.org/dc/elements/1.1/"
   xmlns:cc="http://creativecommons.org/ns#"
   xmlns:rdf="http://www.w3.org/1999/02/22-rdf-syntax-ns#"
   xmlns:svg="http://www.w3.org/2000/svg"
   xmlns="http://www.w3.org/2000/svg"
   xmlns:xlink="http://www.w3.org/1999/xlink"
   xmlns:sodipodi="http://sodipodi.sourceforge.net/DTD/sodipodi-0.dtd"
   xmlns:inkscape="http://www.inkscape.org/namespaces/inkscape"
   width="210mm"
   height="297mm"
   viewBox="0 0 744.09448819 1052.3622047"
   id="svg2"
   version="1.1"
   inkscape:version="0.91 r13725"
   sodipodi:docname="drawing.svg">
  <defs
     id="defs4">
    <linearGradient
       inkscape:collect="always"
       id="linearGradient4209">
      <stop
         style="stop-color:#ffffff;stop-opacity:1;"
         offset="0"
         id="stop4211" />
      <stop
         style="stop-color:#ffffff;stop-opacity:0;"
         offset="1"
         id="stop4213" />
    </linearGradient>
    <filter
       style="color-interpolation-filters:sRGB;"
       inkscape:label="Blur"
       id="filter4168">
      <feGaussianBlur
         stdDeviation="2 2"
         result="blur"
         id="feGaussianBlur4170" />
    </filter>
    <linearGradient
       inkscape:collect="always"
       xlink:href="#linearGradient4209"
       id="linearGradient4215"
       x1="-401.50482"
       y1="1851.2767"
       x2="-389.2243"
       y2="1721.9773"
       gradientUnits="userSpaceOnUse" />
  </defs>
  <sodipodi:namedview
     id="base"
     pagecolor="#ffffff"
     bordercolor="#666666"
     borderopacity="1.0"
     inkscape:pageopacity="0.0"
     inkscape:pageshadow="2"
     inkscape:zoom="0.24748737"
     inkscape:cx="-322.79009"
     inkscape:cy="-868.7624"
     inkscape:document-units="px"
     inkscape:current-layer="layer1"
     showgrid="false"
     inkscape:window-width="1280"
     inkscape:window-height="720"
     inkscape:window-x="-58"
     inkscape:window-y="0"
     inkscape:window-maximized="0" />
  <metadata
     id="metadata7">
    <rdf:RDF>
      <cc:Work
         rdf:about="">
        <dc:format>image/svg+xml</dc:format>
        <dc:type
           rdf:resource="http://purl.org/dc/dcmitype/StillImage" />
        <dc:title></dc:title>
      </cc:Work>
    </rdf:RDF>
  </metadata>
  <g
     inkscape:label="Capa 1"
     inkscape:groupmode="layer"
     id="layer1">
    <rect
       style="opacity:1;fill:#800000;fill-opacity:1"
       id="rect4185"
       width="1217.1428"
       height="1074.2858"
       x="377.15488"
       y="1348.6434" />
    <rect
       style="opacity:1;fill:#ff0000;fill-opacity:0.92337168"
       id="rect4172"
       width="666.86017"
       height="412.14224"
       x="-862.67023"
       y="321.01178" />
    <path
       sodipodi:type="star"
       style="opacity:1;fill:#ffffff;fill-opacity:1"
       id="path4178"
       sodipodi:sides="6"
       sodipodi:cx="-372.10849"
       sodipodi:cy="168.47873"
       sodipodi:r1="527.69208"
       sodipodi:r2="456.99475"
       sodipodi:arg1="1.5707963"
       sodipodi:arg2="2.0943951"
       inkscape:flatsided="true"
       inkscape:rounded="0"
       inkscape:randomized="0"
       d="m -372.10848,696.17081 -456.99475,-263.84603 -10e-6,-527.692077 456.99474,-263.846053 456.994748,263.846028 1.4e-5,527.692082 z"
       transform="matrix(1.2785135,0,0,0.92917149,131.92152,-94.132922)" />
    <path
       style="opacity:0.7;fill:#ffffff;fill-opacity:1"
       d="m -761.11914,1627.9688 0,250.1289 666.859374,0 0,-94.5293 -148.013674,62.1054 z"
       id="rect4180"
       inkscape:export-xdpi="94"
       inkscape:export-ydpi="94"
       inkscape:connector-curvature="0"
       sodipodi:nodetypes="cccccc" />
    <path
       inkscape:export-ydpi="94"
       inkscape:export-xdpi="94"
       id="path4199"
       d="m -761.11914,1627.9688 0,250.1289 666.859374,0 0,-94.5293 -148.013674,62.1054 z"
       style="opacity:1;fill:url(#linearGradient4215);fill-opacity:1"
       inkscape:connector-curvature="0"
       sodipodi:nodetypes="cccccc" />
  </g>
</svg>
